%YAML 1.1
%TAG !u! tag:unity3d.com,2011:
--- !u!1045 &1
EditorBuildSettings:
  m_ObjectHideFlags: 0
  serializedVersion: 2
  m_Scenes:
  - enabled: 1
    path: Assets/Scenes/GoalMania.unity
    guid: 2cda990e2423bbf4892e6590ba056729
  - enabled: 0
    path: Assets/Scenes/NFC Scene.unity
    guid: fb520112c6b329645b78f8a553bc7836
  m_configObjects: {}
